{"current_page":1,"data":[{"id":"01JEWTNTDTAX7WXFRG1P1JSNHB","name":"Combination Pliers","description":"Lorem ipsum dolor sit amet, consectetur adipiscing elit. Mauris viverra felis nec pellentesque feugiat. Donec faucibus arcu maximus, convallis nisl eu, placerat dolor. Morbi finibus neque nec tincidunt pharetra. Sed eget tortor malesuada, mollis enim id, condimentum nisi. In viverra quam at bibendum ultricies. Aliquam quis eros ex. Etiam at pretium massa, ut pharetra tortor. Sed vel metus sem. Suspendisse ac molestie turpis. Duis luctus justo massa, faucibus ornare eros elementum et. Vestibulum quis nisl vitae ante dapibus tempor auctor ut leo. Mauris consectetur et magna at ultricies. Proin a aliquet turpis.","price":14.15,"is_location_offer":false,"is_rental":false,"in_stock":true,"product_image":{"id":"01JEWTNTDKZNQP9QNQAZ65Q7TS","by_name":"Helinton Fantin","by_url":"https:\/\/unsplash.com\/@fantin","source_name":"Unsplash","source_url":"https:\/\/unsplash.com\/photos\/W8BNwvOvW4M","file_name":"pliers01.avif","title":"Combination pliers"},"category":{"id":"01JEWTNTDEMYYGRABFWNETVH64","name":"Pliers","slug":"pliers","parent_id":"01JEWTNTDBYZX0P94DPN2RKRR5"},"brand":{"id":"01JEWTNTD5WNCHVZZPSZERQZP7","name":"ForgeFlex Tools","slug":"forgeflex-tools"}},{"id":"01JEWTNTDWM7DHD54AAW3QYR2Y","name":"Pliers","description":"Nunc vulputate, orci at congue faucibus, enim neque sodales nulla, nec imperdiet augue odio vel nibh. Etiam auctor, ligula quis gravida dictum, mi massa commodo ante, sollicitudin pulvinar nulla justo hendrerit lacus. Vivamus rutrum pharetra molestie. Fusce tristique odio tristique, elementum est eget, porttitor diam. Orci varius natoque penatibus et magnis dis parturient montes, nascetur ridiculus mus. Maecenas at ligula sed sapien porta pretium. Aenean cursus, magna in blandit consectetur, libero orci aliquet eros, et maximus nunc est eu dolor. Aenean non pellentesque eros. In sodales orci eget orci fringilla, vitae feugiat elit porta. Etiam aliquam, mi pretium tempus mattis, mauris ipsum gravida risus, at tempor nulla ipsum molestie ligula. Ut placerat, urna sit amet tincidunt volutpat, ex orci luctus purus, nec laoreet dolor sapien vel erat.","price":12.01,"is_location_offer":false,"is_rental":false,"in_stock":true,"product_image":{"id":"01JEWTNTDKZNQP9QNQAZ65Q7TT","by_name":"Everyday basics","by_url":"https:\/\/unsplash.com\/@zanardi","source_name":"Unsplash","source_url":"https:\/\/unsplash.com\/photos\/I8eTuMmxIfo","file_name":"pliers02.avif","title":"Pliers"},"category":{"id":"01JEWTNTDEMYYGRABFWNETVH64","name":"Pliers","slug":"pliers","parent_id":"01JEWTNTDBYZX0P94DPN2RKRR5"},"brand":{"id":"01JEWTNTD5WNCHVZZPSZERQZP7","name":"ForgeFlex Tools","slug":"forgeflex-tools"}},{"id":"01JEWTNTDYHJZPA3TJ3MDAZ4Z4","name":"Long Nose Pliers","description":"Phasellus consequat fermentum quam id sodales. Curabitur nec dui orci. Fusce id turpis laoreet, lobortis ex non, finibus libero. Vivamus id enim eu nibh placerat maximus. Aenean semper dui a laoreet venenatis. Vestibulum at ligula quam. Donec interdum tristique neque lacinia laoreet. Sed auctor fermentum congue. Integer aliquet vulputate feugiat. Quisque malesuada diam iaculis ornare maximus. Mauris quam massa, sodales at mattis non, consectetur eget magna. Aliquam eget congue metus, sed congue leo. Nam sit amet est id ligula volutpat pharetra non id nisl. Vestibulum ac enim vitae nisi tempus cursus. Aliquam erat volutpat.","price":14.24,"is_location_offer":false,"is_rental":false,"in_stock":false,"product_image":{"id":"01JEWTNTDKZNQP9QNQAZ65Q7TW","by_name":"Brett Jordan","by_url":"https:\/\/unsplash.com\/@brett_jordan","source_name":"Unsplash","source_url":"https:\/\/unsplash.com\/photos\/GamuDTVm02g","file_name":"pliers04.avif","title":"Long nose pliers"},"category":{"id":"01JEWTNTDEMYYGRABFWNETVH64","name":"Pliers","slug":"pliers","parent_id":"01JEWTNTDBYZX0P94DPN2RKRR5"},"brand":{"id":"01JEWTNTD5WNCHVZZPSZERQZP8","name":"MightyCraft Hardware","slug":"mightycraft-hardware"}},{"id":"01JEWTNTE0806H1W0TD8X9BH5G","name":"Claw Hammer with Shock Reduction Grip","description":"Nam efficitur, turpis molestie bibendum lobortis, risus arcu congue tortor, id consequat nibh sem a libero. Pellentesque habitant morbi tristique senectus et netus et malesuada fames ac turpis egestas. Aenean non tincidunt tortor, vel ultricies tortor. Vivamus pulvinar efficitur arcu sit amet accumsan. Aenean dui erat, bibendum at dapibus in, feugiat non eros. Duis sodales felis ex, quis ullamcorper odio interdum non. Ut viverra magna eu augue luctus, quis convallis lectus auctor. Duis ultrices erat urna. Aliquam augue odio, mattis vitae finibus in, pellentesque nec dui. Curabitur nec odio in augue posuere posuere. Vivamus ante est, iaculis ut interdum et, hendrerit ac ante. Fusce ac venenatis neque, id fermentum nulla. Quisque tristique ornare nisi, vitae convallis dui faucibus quis. Vestibulum vel dapibus dolor.","price":13.41,"is_location_offer":true,"is_rental":false,"in_stock":true,"product_image":{"id":"01JEWTNTDKZNQP9QNQAZ65Q7TY","by_name":"iMattSmart","by_url":"https:\/\/unsplash.com\/@imattsmart","source_name":"Unsplash","source_url":"https:\/\/unsplash.com\/photos\/jaLaLQdkBOE","file_name":"hammer01.avif","title":"Claw Hammer"},"category":{"id":"01JEWTNTDEMYYGRABFWNETVH60","name":"Hammer","slug":"hammer","parent_id":"01JEWTNTDBYZX0P94DPN2RKRR5"},"brand":{"id":"01JEWTNTD5WNCHVZZPSZERQZP7","name":"ForgeFlex Tools","slug":"forgeflex-tools"}},{"id":"01JEWTNTE1GZKZ0R08E4MMX3KP","name":"Hammer","description":"Mauris mollis odio est, ac vehicula dui lobortis vel. Cras facilisis, mauris ut vehicula dignissim, ex nunc sollicitudin velit, a fermentum mi odio ut massa. Lorem ipsum dolor sit amet, consectetur adipiscing elit. Praesent a sapien vel libero fermentum rhoncus. Etiam ac imperdiet arcu, ac accumsan risus. Fusce vitae lacinia sem, sit amet sagittis lorem. Curabitur efficitur ultricies sem, eu placerat ante tincidunt a. Morbi faucibus ullamcorper mi a mollis. Aenean sed magna aliquam, mollis dui at, condimentum ex. Donec blandit bibendum enim, lacinia vestibulum tellus laoreet sollicitudin. In vitae ullamcorper metus, ut interdum augue. Class aptent taciti sociosqu ad litora torquent per conubia nostra, per inceptos himenaeos. Nullam scelerisque dignissim varius. Nulla facilisi. Praesent eros dolor, ultricies sit amet pellentesque porttitor, pretium ut lectus. Nullam tempus tellus sapien, non condimentum mauris volutpat eget.","price":12.58,"is_location_offer":false,"is_rental":false,"in_stock":true,"product_image":{"id":"01JEWTNTDKZNQP9QNQAZ65Q7TZ","by_name":"Jozsef Hocza","by_url":"https:\/\/unsplash.com\/@hocza","source_name":"Unsplash","source_url":"https:\/\/unsplash.com\/photos\/D3nouOYbALc","file_name":"hammer02.avif","title":"Hammer"},"category":{"id":"01JEWTNTDEMYYGRABFWNETVH60","name":"Hammer","slug":"hammer","parent_id":"01JEWTNTDBYZX0P94DPN2RKRR5"},"brand":{"id":"01JEWTNTD5WNCHVZZPSZERQZP7","name":"ForgeFlex Tools","slug":"forgeflex-tools"}},{"id":"01JEWTNTE2TG23YDZN84C5J8PY","name":"Claw Hammer","description":"Cras pulvinar nisl a quam fringilla tempus. Sed lectus urna, mattis quis arcu eget, aliquam laoreet mauris. Praesent accumsan facilisis eros, ac mattis nulla interdum nec. Phasellus ultrices eu metus in lobortis. Donec ac efficitur orci. Phasellus nulla neque, congue nec tincidunt id, ultrices vel sapien. Curabitur gravida ex leo, laoreet mollis arcu blandit vel.","price":11.48,"is_location_offer":true,"is_rental":false,"in_stock":true,"product_image":{"id":"01JEWTNTDKZNQP9QNQAZ65Q7V0","by_name":"Andrew George","by_url":"https:\/\/unsplash.com\/@andrewjoegeorge","source_name":"Unsplash","source_url":"https:\/\/unsplash.com\/photos\/YU2mCvXR0wA","file_name":"hammer03.avif","title":"Claw Hammer"},"category":{"id":"01JEWTNTDEMYYGRABFWNETVH60","name":"Hammer","slug":"hammer","parent_id":"01JEWTNTDBYZX0P94DPN2RKRR5"},"brand":{"id":"01JEWTNTD5WNCHVZZPSZERQZP8","name":"MightyCraft Hardware","slug":"mightycraft-hardware"}},{"id":"01JEWTNTE3HZDF8705F6W7GADN","name":"Thor Hammer","description":"Donec malesuada tempus purus. Integer sit amet arcu magna. Sed vel laoreet ligula, non sollicitudin ex. Mauris euismod ac dolor venenatis lobortis. Aliquam iaculis at diam nec accumsan. Ut sodales sed elit et imperdiet. Maecenas vitae molestie mauris. Integer quis placerat libero, in finibus diam. Interdum et malesuada fames ac ante ipsum primis in faucibus.","price":11.14,"is_location_offer":false,"is_rental":false,"in_stock":true,"product_image":{"id":"01JEWTNTDKZNQP9QNQAZ65Q7V1","by_name":"ANIRUDH","by_url":"https:\/\/unsplash.com\/@lanirudhreddy","source_name":"Unsplash","source_url":"https:\/\/unsplash.com\/photos\/3esjG-nlgyk","file_name":"hammer04.avif","title":"Hammer"},"category":{"id":"01JEWTNTDEMYYGRABFWNETVH60","name":"Hammer","slug":"hammer","parent_id":"01JEWTNTDBYZX0P94DPN2RKRR5"},"brand":{"id":"01JEWTNTD5WNCHVZZPSZERQZP7","name":"ForgeFlex Tools","slug":"forgeflex-tools"}},{"id":"01JEWTNTE4XVJYW8NCT9DK854A","name":"Sledgehammer","description":"Mauris sodales ligula vel mi sagittis, vel lobortis orci accumsan. Donec enim velit, lobortis sit amet dignissim vitae, molestie vitae libero. Curabitur ultrices interdum pellentesque. Nullam feugiat sagittis mi, sed hendrerit erat finibus cursus. Morbi mollis nulla ac metus posuere faucibus. Ut at purus turpis. Aliquam erat volutpat. Mauris euismod lacus pulvinar, aliquam erat non, laoreet turpis. Nunc sagittis tellus sed purus mattis lobortis. Vivamus venenatis ut lorem at finibus. Pellentesque habitant morbi tristique senectus et netus et malesuada fames ac turpis egestas. Suspendisse mi felis, luctus tristique vulputate nec, auctor quis erat. Nulla eget massa vel massa bibendum vulputate. Interdum et malesuada fames ac ante ipsum primis in faucibus. Ut lacus felis, egestas ac hendrerit at, posuere venenatis quam.","price":17.75,"is_location_offer":false,"is_rental":false,"in_stock":true,"product_image":{"id":"01JEWTNTDKZNQP9QNQAZ65Q7V2","by_name":"Fausto Marqués","by_url":"https:\/\/unsplash.com\/@faustomarques","source_name":"Unsplash","source_url":"https:\/\/unsplash.com\/photos\/A9dq-L3zzHA","file_name":"hammer05.avif","title":"Hammer"},"category":{"id":"01JEWTNTDEMYYGRABFWNETVH60","name":"Hammer","slug":"hammer","parent_id":"01JEWTNTDBYZX0P94DPN2RKRR5"},"brand":{"id":"01JEWTNTD5WNCHVZZPSZERQZP7","name":"ForgeFlex Tools","slug":"forgeflex-tools"}},{"id":"01JEWTNTE62N4WAM1M9WSE9EWH","name":"Court Hammer","description":"Interdum et malesuada fames ac ante ipsum primis in faucibus. Duis ut dictum dolor. Curabitur ligula ipsum, aliquet at nunc a, porta aliquam orci. Praesent tempor sagittis arcu et tempus. Donec porta odio et felis vulputate, ut semper mi varius. Integer bibendum nulla sed justo vehicula molestie. Quisque dictum magna sed metus maximus, non dignissim eros accumsan. Suspendisse eget augue maximus, rhoncus risus nec, sodales arcu. Sed sed egestas tortor. Proin quis cursus ligula. Integer finibus turpis eget dolor ultricies, non facilisis dolor sollicitudin. Aliquam hendrerit mollis scelerisque. Mauris interdum purus est, rutrum interdum nisi aliquam pellentesque. Cras eros eros, scelerisque quis ipsum nec, bibendum mollis mi.","price":18.63,"is_location_offer":true,"is_rental":false,"in_stock":true,"product_image":{"id":"01JEWTNTDKZNQP9QNQAZ65Q7V4","by_name":"Wesley Tingey","by_url":"https:\/\/unsplash.com\/@wesleyphotography","source_name":"Unsplash","source_url":"https:\/\/unsplash.com\/photos\/9z9fxr_7Z-k","file_name":"hammer07.avif","title":"Hammer"},"category":{"id":"01JEWTNTDEMYYGRABFWNETVH60","name":"Hammer","slug":"hammer","parent_id":"01JEWTNTDBYZX0P94DPN2RKRR5"},"brand":{"id":"01JEWTNTD5WNCHVZZPSZERQZP7","name":"ForgeFlex Tools","slug":"forgeflex-tools"}}],"from":1,"last_page":2,"per_page":9,"to":9,"total":17}