{"current_page":1,"data":[{"id":"01JEWTNTFM0G9P10CZFGV5RZSD","name":"Workbench with Drawers","description":"Nulla vitae lacus risus. Phasellus accumsan mi nec consectetur euismod. Donec a finibus quam. Proin id tempus tellus. Etiam vel lectus vel nunc convallis commodo. In massa ante, hendrerit eu ultricies ac, sagittis quis urna. Aliquam porttitor varius mattis. Etiam ac auctor risus, vitae pellentesque enim. Donec convallis est vel tellus dictum rhoncus. Vestibulum suscipit mollis diam, vehicula facilisis libero egestas sed. Mauris at urna aliquet, iaculis dui et, aliquam nunc.","price":178.2,"is_location_offer":false,"is_rental":false,"in_stock":true,"product_image":{"id":"01JEWTNTDKZNQP9QNQAZ65Q7WB","by_name":"Matteo Minoglio","by_url":"https:\/\/unsplash.com\/@ilmino","source_name":"Unsplash","source_url":"https:\/\/unsplash.com\/photos\/opened-brown-wooden-drawers-m8-NX7WxbpM","file_name":"workbench02.avif","title":"Workbench with Drawers"},"category":{"id":"01JEWTNTDEMYYGRABFWNETVH6D","name":"Workbench","slug":"workbench","parent_id":"01JEWTNTDBYZX0P94DPN2RKRR7"},"brand":{"id":"01JEWTNTD5WNCHVZZPSZERQZP7","name":"ForgeFlex Tools","slug":"forgeflex-tools"}},{"id":"01JEWTNTFNNN2GE48107DPBCFG","name":"Wooden Workbench","description":"Suspendisse non felis urna. Donec iaculis feugiat enim ac dignissim. Suspendisse vel hendrerit eros. Morbi in posuere quam. Aliquam ipsum felis, sollicitudin id magna et, facilisis bibendum metus. Donec egestas tincidunt orci, vitae dignissim nibh rutrum eu. Proin sit amet dui ut tortor luctus luctus at a velit. Vivamus facilisis orci id gravida aliquam. Nam tempus vehicula sem, nec semper ex tincidunt in. Pellentesque tellus est, sodales sit amet condimentum ac, ullamcorper sed lorem. Nullam egestas ac libero nec imperdiet.","price":172.52,"is_location_offer":false,"is_rental":false,"in_stock":true,"product_image":{"id":"01JEWTNTDKZNQP9QNQAZ65Q7WC","by_name":"Brett Garwood","by_url":"https:\/\/unsplash.com\/@brettgarwood","source_name":"Unsplash","source_url":"https:\/\/unsplash.com\/photos\/brown-wooden-stick-on-brown-wooden-table-asZVvgMGshc","file_name":"workbench01.avif","title":"Wooden Workbench"},"category":{"id":"01JEWTNTDEMYYGRABFWNETVH6D","name":"Workbench","slug":"workbench","parent_id":"01JEWTNTDBYZX0P94DPN2RKRR7"},"brand":{"id":"01JEWTNTD5WNCHVZZPSZERQZP8","name":"MightyCraft Hardware","slug":"mightycraft-hardware"}},{"id":"01JEWTNTE7PH53B8J7E6FV64W5","name":"Wood Saw","description":"Quisque quis fermentum ligula. Aenean vulputate orci in ipsum varius, quis lacinia mauris eleifend. Quisque in turpis dapibus, consectetur nulla quis, semper felis. Nunc venenatis malesuada neque, ac rhoncus risus imperdiet eu. Proin eu eros at nibh blandit suscipit. Vestibulum condimentum nibh sit amet arcu congue, eu bibendum lorem venenatis. Nam molestie est at sem mollis porttitor. Aliquam eget purus sed lectus hendrerit finibus ac ac nunc. Nulla mi metus, euismod nec pharetra quis, porta vel nisl. Mauris euismod purus volutpat odio rhoncus, id elementum turpis rutrum. Integer semper, nunc vel pharetra mollis, magna magna euismod sem, ut scelerisque purus turpis eget lorem. Lorem ipsum dolor sit amet, consectetur adipiscing elit. Pellentesque pharetra lectus eget lorem fermentum, ac pulvinar nulla vulputate.","price":12.18,"is_location_offer":false,"is_rental":false,"in_stock":true,"product_image":{"id":"01JEWTNTDKZNQP9QNQAZ65Q7V5","by_name":"Jonathan Cooper","by_url":"https:\/\/unsplash.com\/@theshuttervision","source_name":"Unsplash","source_url":"https:\/\/unsplash.com\/photos\/fTpzd-PjyDQ","file_name":"saw01.avif","title":"Wood Saw"},"category":{"id":"01JEWTNTDEMYYGRABFWNETVH61","name":"Hand Saw","slug":"hand-saw","parent_id":"01JEWTNTDBYZX0P94DPN2RKRR5"},"brand":{"id":"01JEWTNTD5WNCHVZZPSZERQZP7","name":"ForgeFlex Tools","slug":"forgeflex-tools"}},{"id":"01JEWTNTEFSMW9JR9ZQ1PC6WEN","name":"Wood Carving Chisels","description":"Fusce cursus cursus leo, nec pharetra turpis mattis porttitor. Ut fringilla, nisl a iaculis dictum, enim ante eleifend nisl, fermentum fringilla ligula nunc quis eros. Donec in magna quis ex placerat dapibus. Vivamus in iaculis elit. Nulla commodo tincidunt urna, sed gravida erat egestas in. Nunc mauris sapien, placerat vitae vehicula quis, sagittis a est. Morbi condimentum vitae enim in hendrerit. Suspendisse est magna, ullamcorper et porta id, auctor eu est. Nulla id magna vestibulum, porttitor tellus porta, maximus libero. Integer pulvinar mauris at posuere interdum. Nam vel ligula placerat, condimentum lacus quis, gravida eros. Curabitur sit amet erat ipsum. Sed ut suscipit sem, ac lacinia purus. Nam dignissim imperdiet dolor, quis efficitur nulla tincidunt non.","price":45.23,"is_location_offer":true,"is_rental":false,"in_stock":true,"product_image":{"id":"01JEWTNTDKZNQP9QNQAZ65Q7VQ","by_name":"Octavian Iordache","by_url":"https:\/\/unsplash.com\/@octavianiordache","source_name":"Unsplash","source_url":"https:\/\/unsplash.com\/photos\/brown-wooden-wall-mounted-rack-FgP27oU8LWw","file_name":"chisels02.avif","title":"Chisel"},"category":{"id":"01JEWTNTDEMYYGRABFWNETVH65","name":"Chisels","slug":"chisels","parent_id":"01JEWTNTDBYZX0P94DPN2RKRR5"},"brand":{"id":"01JEWTNTD5WNCHVZZPSZERQZP7","name":"ForgeFlex Tools","slug":"forgeflex-tools"}},{"id":"01JEWTNTFCGHDC22TZMSJXC7QR","name":"Washers","description":"Nullam aliquam a odio tristique facilisis. Maecenas rhoncus eleifend nulla, in laoreet felis convallis vel. Praesent ultricies tincidunt arcu. Nam eleifend consequat tempor. Aenean consectetur semper quam, ac gravida odio scelerisque pharetra. Nam eu sem non mi hendrerit semper nec nec mauris. Praesent at metus nec eros egestas dictum. Quisque quis massa diam. Aenean consequat sem at lorem vestibulum, et volutpat sem imperdiet. Nulla facilisi.","price":3.55,"is_location_offer":false,"is_rental":false,"in_stock":true,"product_image":{"id":"01JEWTNTDKZNQP9QNQAZ65Q7W7","by_name":"Robert Ruggiero","by_url":"https:\/\/unsplash.com\/@robert2301","source_name":"Unsplash","source_url":"https:\/\/unsplash.com\/photos\/a-pile-of-different-colored-washers-sitting-on-top-of-a-table-oY6774he6GQ","file_name":"fasteners06.avif","title":"Washers"},"category":{"id":"01JEWTNTDEMYYGRABFWNETVH6F","name":"Fasteners","slug":"fasteners","parent_id":"01JEWTNTDBYZX0P94DPN2RKRR7"},"brand":{"id":"01JEWTNTD5WNCHVZZPSZERQZP7","name":"ForgeFlex Tools","slug":"forgeflex-tools"}},{"id":"01JEWTNTFKQED81ZBS8F489B83","name":"Tool Cabinet","description":"Curabitur eu dictum eros. Integer ante neque, viverra ut dapibus eget, scelerisque et erat. Vivamus cursus laoreet dolor, id aliquet diam vulputate at. Sed mi magna, feugiat nec finibus porttitor, rhoncus ac ante. Interdum et malesuada fames ac ante ipsum primis in faucibus. Duis ligula risus, convallis vitae pulvinar vitae, porttitor vitae purus. Ut eget placerat nisi.","price":86.71,"is_location_offer":false,"is_rental":false,"in_stock":true,"product_image":{"id":"01JEWTNTDKZNQP9QNQAZ65Q7WA","by_name":"Georg Eiermann","by_url":"https:\/\/unsplash.com\/@georgeiermann","source_name":"Unsplash","source_url":"https:\/\/unsplash.com\/photos\/a-group-of-wooden-objects-uXWbowHdJqk","file_name":"toolcabinet01.avif","title":"Tool Cabinet"},"category":{"id":"01JEWTNTDEMYYGRABFWNETVH6C","name":"Storage Solutions","slug":"storage solutions","parent_id":"01JEWTNTDBYZX0P94DPN2RKRR7"},"brand":{"id":"01JEWTNTD5WNCHVZZPSZERQZP7","name":"ForgeFlex Tools","slug":"forgeflex-tools"}},{"id":"01JEWTNTE3HZDF8705F6W7GADN","name":"Thor Hammer","description":"Donec malesuada tempus purus. Integer sit amet arcu magna. Sed vel laoreet ligula, non sollicitudin ex. Mauris euismod ac dolor venenatis lobortis. Aliquam iaculis at diam nec accumsan. Ut sodales sed elit et imperdiet. Maecenas vitae molestie mauris. Integer quis placerat libero, in finibus diam. Interdum et malesuada fames ac ante ipsum primis in faucibus.","price":11.14,"is_location_offer":false,"is_rental":false,"in_stock":true,"product_image":{"id":"01JEWTNTDKZNQP9QNQAZ65Q7V1","by_name":"ANIRUDH","by_url":"https:\/\/unsplash.com\/@lanirudhreddy","source_name":"Unsplash","source_url":"https:\/\/unsplash.com\/photos\/3esjG-nlgyk","file_name":"hammer04.avif","title":"Hammer"},"category":{"id":"01JEWTNTDEMYYGRABFWNETVH60","name":"Hammer","slug":"hammer","parent_id":"01JEWTNTDBYZX0P94DPN2RKRR5"},"brand":{"id":"01JEWTNTD5WNCHVZZPSZERQZP7","name":"ForgeFlex Tools","slug":"forgeflex-tools"}},{"id":"01JEWTNTEHP228ZQQ6KJ0FRPA0","name":"Tape Measure 7.5m","description":"Mauris commodo lacus eu ante mattis pulvinar. Curabitur porta nibh nec magna viverra, eu feugiat felis semper. Maecenas malesuada lacus a iaculis commodo. Maecenas mollis egestas urna, sed rutrum libero vehicula et. Suspendisse aliquam, lorem a imperdiet fringilla, nulla tortor consequat nibh, quis venenatis sapien dui quis ligula. Integer id nibh vestibulum, imperdiet tellus suscipit, laoreet libero. Pellentesque a nisi et neque vestibulum faucibus in ac leo. Etiam est tellus, feugiat in iaculis vitae, tincidunt sit amet tellus. Nam sit amet nunc justo. Pellentesque feugiat lorem vitae tellus ultrices ultrices. Pellentesque id posuere augue, eget imperdiet turpis. Phasellus nec finibus augue. Quisque tincidunt mi malesuada, placerat nunc ut, dictum nibh.","price":7.23,"is_location_offer":false,"is_rental":false,"in_stock":true,"product_image":{"id":"01JEWTNTDKZNQP9QNQAZ65Q7VS","by_name":"Brett Jordan","by_url":"https:\/\/unsplash.com\/@brett_jordan","source_name":"Unsplash","source_url":"https:\/\/unsplash.com\/photos\/blue-and-yellow-measuring-tape-faOPbPmznfQ","file_name":"measure01.avif","title":"Tape Measure 7.5m"},"category":{"id":"01JEWTNTDEMYYGRABFWNETVH66","name":"Measures","slug":"measures","parent_id":"01JEWTNTDBYZX0P94DPN2RKRR5"},"brand":{"id":"01JEWTNTD5WNCHVZZPSZERQZP7","name":"ForgeFlex Tools","slug":"forgeflex-tools"}},{"id":"01JEWTNTEKXVX3GKEE89SMYHZ8","name":"Tape Measure 5m","description":"Aenean elementum, turpis sed lobortis commodo, arcu massa ullamcorper dolor, vel pretium leo tortor sit amet elit. Curabitur tellus nulla, fermentum vitae pretium in, feugiat vel tellus. Ut non porttitor elit, vel auctor est. Phasellus euismod eu lectus vel tristique. Etiam varius semper eros, a rhoncus erat dignissim vitae. In ut ultricies odio. Donec ultricies rhoncus ipsum, quis ullamcorper justo sodales nec. Integer vulputate facilisis nibh et tincidunt. Aliquam ac tortor augue. Aenean eu nisl rutrum, varius felis rhoncus, blandit justo. Sed gravida, arcu a venenatis dictum, lorem lacus commodo diam, vel pulvinar diam leo nec tellus.","price":12.91,"is_location_offer":false,"is_rental":false,"in_stock":true,"product_image":{"id":"01JEWTNTDKZNQP9QNQAZ65Q7VV","by_name":"Immo Wegmann","by_url":"https:\/\/unsplash.com\/@macroman","source_name":"Unsplash","source_url":"https:\/\/unsplash.com\/photos\/yellow-and-black-measuring-tape-1abCQ_3g_UY","file_name":"measure03.avif","title":"Tape Measure 5m"},"category":{"id":"01JEWTNTDEMYYGRABFWNETVH66","name":"Measures","slug":"measures","parent_id":"01JEWTNTDBYZX0P94DPN2RKRR5"},"brand":{"id":"01JEWTNTD5WNCHVZZPSZERQZP7","name":"ForgeFlex Tools","slug":"forgeflex-tools"}}],"from":1,"last_page":6,"per_page":9,"to":9,"total":50}