{"current_page":1,"data":[{"id":"01JEWTNTE87JG017PECK1A5NP8","name":"Adjustable Wrench","description":"Praesent ullamcorper suscipit arcu eget interdum. Praesent bibendum molestie turpis eu lobortis. Curabitur feugiat lacus a pharetra volutpat. Vivamus et vehicula nulla. Donec vulputate mauris vitae pharetra maximus. Donec rhoncus dolor ante, in bibendum enim ultrices vitae. Curabitur ultricies, ex id aliquam sollicitudin, leo turpis posuere mauris, eget placerat ipsum nisi ac nunc. Pellentesque dapibus est id pellentesque maximus. Nunc consectetur, ex vel interdum ultricies, nisl dui cursus odio, a faucibus felis massa id massa.","price":20.33,"is_location_offer":false,"is_rental":false,"in_stock":true,"product_image":{"id":"01JEWTNTDKZNQP9QNQAZ65Q7V6","by_name":"Recha Oktaviani","by_url":"https:\/\/unsplash.com\/@rechaoktaviani","source_name":"Unsplash","source_url":"https:\/\/unsplash.com\/photos\/t__61ap00Mc","file_name":"wrench01.avif","title":"Adjustable wrench"},"category":{"id":"01JEWTNTDEMYYGRABFWNETVH62","name":"Wrench","slug":"wrench","parent_id":"01JEWTNTDBYZX0P94DPN2RKRR5"},"brand":{"id":"01JEWTNTD5WNCHVZZPSZERQZP7","name":"ForgeFlex Tools","slug":"forgeflex-tools"}},{"id":"01JEWTNTE9H1SHT1JWVG28YQCG","name":"Angled Spanner","description":"Cras convallis, eros vitae laoreet cursus, lorem elit fringilla felis, non tincidunt massa leo sit amet odio. In fringilla feugiat ipsum, in pretium erat faucibus sollicitudin. Curabitur leo ex, tincidunt vel luctus non, lobortis et ex. Praesent eget maximus metus. Mauris quis ex posuere, pretium nisl nec, lacinia velit. Pellentesque ut justo faucibus, vehicula nisi vel, egestas massa. In viverra lorem sed mi aliquam, sit amet pulvinar sem lacinia. Pellentesque convallis rutrum diam in pharetra. Ut nibh lectus, tristique ac ipsum et, eleifend tempus risus. Nam sollicitudin magna ut scelerisque porttitor. In eu accumsan purus. Nam suscipit lorem erat, a pellentesque enim commodo faucibus. Aenean id tincidunt lorem.","price":14.14,"is_location_offer":true,"is_rental":false,"in_stock":true,"product_image":{"id":"01JEWTNTDKZNQP9QNQAZ65Q7V7","by_name":"Tekton","by_url":"https:\/\/unsplash.com\/@tekton_tools","source_name":"Unsplash","source_url":"https:\/\/unsplash.com\/photos\/9z7t48S5C_g","file_name":"wrench02.avif","title":"Wrench"},"category":{"id":"01JEWTNTDEMYYGRABFWNETVH62","name":"Wrench","slug":"wrench","parent_id":"01JEWTNTDBYZX0P94DPN2RKRR5"},"brand":{"id":"01JEWTNTD5WNCHVZZPSZERQZP7","name":"ForgeFlex Tools","slug":"forgeflex-tools"}},{"id":"01JEWTNTFSE14AM4XASXW5P669","name":"Belt Sander","description":"Nulla id consequat libero. Proin porta purus quis nulla condimentum, ac pharetra nunc tempor. Nulla sit amet volutpat quam. Aliquam suscipit non nisi quis facilisis. Integer vel urna non ante porttitor laoreet. Duis vitae justo enim. Vivamus sagittis libero et placerat malesuada. Integer non eros lectus. Aenean hendrerit nisi et vulputate vehicula. Proin euismod quis nunc sit amet mattis.","price":73.59,"is_location_offer":false,"is_rental":false,"in_stock":true,"product_image":{"id":"01JEWTNTDKZNQP9QNQAZ65Q7VC","by_name":"Luther.M.E. Bottrill","by_url":"https:\/\/unsplash.com\/@luthermeb","source_name":"Unsplash","source_url":"https:\/\/unsplash.com\/photos\/7kHN1-9dD_4","file_name":"sander02.avif","title":"Belt sander"},"category":{"id":"01JEWTNTDEMYYGRABFWNETVH68","name":"Sander","slug":"sander","parent_id":"01JEWTNTDBYZX0P94DPN2RKRR6"},"brand":{"id":"01JEWTNTD5WNCHVZZPSZERQZP8","name":"MightyCraft Hardware","slug":"mightycraft-hardware"}},{"id":"01JEWTNTDXTBNABQDHY7P736QK","name":"Bolt Cutters","description":"Aliquam viverra scelerisque tempus. Ut vehicula, ex sed elementum rhoncus, sem neque vehicula turpis, sit amet accumsan mauris justo non magna. Cras ut vulputate lectus, sit amet sollicitudin enim. Quisque sit amet turpis ut orci pulvinar vestibulum non at velit. Quisque ultrices malesuada felis non rutrum. Sed molestie lobortis nisl, in varius arcu dictum vel. In sit amet fringilla orci. Quisque ac magna dui. Nam pulvinar nulla sed commodo ultricies. Suspendisse aliquet quis eros sit amet gravida. Aenean vitae arcu in sapien sodales commodo.","price":48.41,"is_location_offer":true,"is_rental":false,"in_stock":true,"product_image":{"id":"01JEWTNTDKZNQP9QNQAZ65Q7TV","by_name":"Michael Dziedzic","by_url":"https:\/\/unsplash.com\/@lazycreekimages","source_name":"Unsplash","source_url":"https:\/\/unsplash.com\/photos\/pM9pkc9J918","file_name":"pliers03.avif","title":"Bolt cutters"},"category":{"id":"01JEWTNTDEMYYGRABFWNETVH64","name":"Pliers","slug":"pliers","parent_id":"01JEWTNTDBYZX0P94DPN2RKRR5"},"brand":{"id":"01JEWTNTD5WNCHVZZPSZERQZP8","name":"MightyCraft Hardware","slug":"mightycraft-hardware"}},{"id":"01JEWTNTEDQE4Y4VBGVYDE5RQN","name":"Chisels Set","description":"Praesent ornare, purus vitae volutpat consectetur, nulla arcu volutpat magna, ac ultrices purus risus ac purus. Aliquam quis massa erat. Etiam vulputate malesuada nunc, eu tempor felis pellentesque et. Aenean sodales neque non justo finibus sodales. Aenean varius imperdiet laoreet. Quisque feugiat interdum lobortis. Morbi dictum nisi tincidunt purus sollicitudin, a pellentesque erat interdum. Aliquam dignissim vel nisi non semper. Sed sagittis dignissim nulla sed porta. Pellentesque suscipit, erat vitae congue faucibus, dolor erat semper felis, sed maximus velit arcu et odio.","price":12.96,"is_location_offer":false,"is_rental":false,"in_stock":true,"product_image":{"id":"01JEWTNTDKZNQP9QNQAZ65Q7VP","by_name":"Collab Media","by_url":"https:\/\/unsplash.com\/@collab_media","source_name":"Unsplash","source_url":"https:\/\/unsplash.com\/photos\/a-couple-of-tools-that-are-on-a-table-JQZyN8WJPh0","file_name":"chisels01.avif","title":"Chisel"},"category":{"id":"01JEWTNTDEMYYGRABFWNETVH65","name":"Chisels","slug":"chisels","parent_id":"01JEWTNTDBYZX0P94DPN2RKRR5"},"brand":{"id":"01JEWTNTD5WNCHVZZPSZERQZP8","name":"MightyCraft Hardware","slug":"mightycraft-hardware"}},{"id":"01JEWTNTFTC08BBG4NPXTH5BYN","name":"Circular Saw","description":"Lorem ipsum dolor sit amet, consectetur adipiscing elit. Nunc ut fermentum tortor. Donec dolor urna, cursus sed scelerisque a, pulvinar eu metus. Vestibulum consectetur neque at diam laoreet, quis pharetra lacus auctor. Vestibulum volutpat porttitor lectus et hendrerit. Sed aliquet ultricies lobortis. Integer quis felis vel orci porta vehicula. Suspendisse potenti. Nullam nec ligula sed urna fermentum efficitur ac quis turpis. Aliquam ac molestie dui. Integer eleifend mattis metus id tristique. Donec aliquet erat vehicula dolor faucibus porta. Vestibulum est leo, bibendum in luctus non, tristique pellentesque lectus. Nam sit amet convallis est. Nam molestie finibus eros vitae facilisis.","price":80.19,"is_location_offer":false,"is_rental":false,"in_stock":true,"product_image":{"id":"01JEWTNTDKZNQP9QNQAZ65Q7VD","by_name":"Luther.M.E. Bottrill","by_url":"https:\/\/unsplash.com\/@luthermeb","source_name":"Unsplash","source_url":"https:\/\/unsplash.com\/photos\/EgIT3YHBo9E","file_name":"saw02.avif","title":"Saw"},"category":{"id":"01JEWTNTDEMYYGRABFWNETVH69","name":"Saw","slug":"saw","parent_id":"01JEWTNTDBYZX0P94DPN2RKRR6"},"brand":{"id":"01JEWTNTD5WNCHVZZPSZERQZP7","name":"ForgeFlex Tools","slug":"forgeflex-tools"}},{"id":"01JEWTNTE2TG23YDZN84C5J8PY","name":"Claw Hammer","description":"Cras pulvinar nisl a quam fringilla tempus. Sed lectus urna, mattis quis arcu eget, aliquam laoreet mauris. Praesent accumsan facilisis eros, ac mattis nulla interdum nec. Phasellus ultrices eu metus in lobortis. Donec ac efficitur orci. Phasellus nulla neque, congue nec tincidunt id, ultrices vel sapien. Curabitur gravida ex leo, laoreet mollis arcu blandit vel.","price":11.48,"is_location_offer":true,"is_rental":false,"in_stock":true,"product_image":{"id":"01JEWTNTDKZNQP9QNQAZ65Q7V0","by_name":"Andrew George","by_url":"https:\/\/unsplash.com\/@andrewjoegeorge","source_name":"Unsplash","source_url":"https:\/\/unsplash.com\/photos\/YU2mCvXR0wA","file_name":"hammer03.avif","title":"Claw Hammer"},"category":{"id":"01JEWTNTDEMYYGRABFWNETVH60","name":"Hammer","slug":"hammer","parent_id":"01JEWTNTDBYZX0P94DPN2RKRR5"},"brand":{"id":"01JEWTNTD5WNCHVZZPSZERQZP8","name":"MightyCraft Hardware","slug":"mightycraft-hardware"}},{"id":"01JEWTNTE54G7DHNEQAT106S3C","name":"Claw Hammer with Fiberglass Handle","description":"Lorem ipsum dolor sit amet, consectetur adipiscing elit. Quisque quis elit ipsum. Maecenas eu tortor vel elit pharetra sodales. Praesent posuere odio mauris, id faucibus quam sollicitudin et. Suspendisse tristique sapien at mi blandit auctor. Aliquam ullamcorper, odio eget suscipit malesuada, velit magna pharetra diam, at pharetra enim lectus vel massa. Nulla vel lectus et quam feugiat interdum. Fusce hendrerit dignissim purus sed tincidunt. Cras eu ligula urna. Praesent laoreet ipsum ut dictum sodales. Proin sollicitudin imperdiet ante, suscipit dignissim nibh condimentum sagittis. Suspendisse placerat metus a enim fermentum imperdiet. In ut elementum lacus. Aliquam ut arcu a elit tempus tincidunt. Sed sem eros, ornare eu felis consequat, pulvinar consectetur urna. Etiam at cursus elit. Pellentesque aliquet, neque id viverra porta, purus arcu malesuada quam, at cursus ipsum ex nec erat.","price":20.14,"is_location_offer":false,"is_rental":false,"in_stock":true,"product_image":{"id":"01JEWTNTDKZNQP9QNQAZ65Q7V3","by_name":"Jonny Gios","by_url":"https:\/\/unsplash.com\/@supergios","source_name":"Unsplash","source_url":"https:\/\/unsplash.com\/photos\/ARaYGFeuwpU","file_name":"hammer06.avif","title":"Claw Hammer"},"category":{"id":"01JEWTNTDEMYYGRABFWNETVH60","name":"Hammer","slug":"hammer","parent_id":"01JEWTNTDBYZX0P94DPN2RKRR5"},"brand":{"id":"01JEWTNTD5WNCHVZZPSZERQZP7","name":"ForgeFlex Tools","slug":"forgeflex-tools"}},{"id":"01JEWTNTE0806H1W0TD8X9BH5G","name":"Claw Hammer with Shock Reduction Grip","description":"Nam efficitur, turpis molestie bibendum lobortis, risus arcu congue tortor, id consequat nibh sem a libero. Pellentesque habitant morbi tristique senectus et netus et malesuada fames ac turpis egestas. Aenean non tincidunt tortor, vel ultricies tortor. Vivamus pulvinar efficitur arcu sit amet accumsan. Aenean dui erat, bibendum at dapibus in, feugiat non eros. Duis sodales felis ex, quis ullamcorper odio interdum non. Ut viverra magna eu augue luctus, quis convallis lectus auctor. Duis ultrices erat urna. Aliquam augue odio, mattis vitae finibus in, pellentesque nec dui. Curabitur nec odio in augue posuere posuere. Vivamus ante est, iaculis ut interdum et, hendrerit ac ante. Fusce ac venenatis neque, id fermentum nulla. Quisque tristique ornare nisi, vitae convallis dui faucibus quis. Vestibulum vel dapibus dolor.","price":13.41,"is_location_offer":true,"is_rental":false,"in_stock":true,"product_image":{"id":"01JEWTNTDKZNQP9QNQAZ65Q7TY","by_name":"iMattSmart","by_url":"https:\/\/unsplash.com\/@imattsmart","source_name":"Unsplash","source_url":"https:\/\/unsplash.com\/photos\/jaLaLQdkBOE","file_name":"hammer01.avif","title":"Claw Hammer"},"category":{"id":"01JEWTNTDEMYYGRABFWNETVH60","name":"Hammer","slug":"hammer","parent_id":"01JEWTNTDBYZX0P94DPN2RKRR5"},"brand":{"id":"01JEWTNTD5WNCHVZZPSZERQZP7","name":"ForgeFlex Tools","slug":"forgeflex-tools"}}],"from":1,"last_page":6,"per_page":9,"to":9,"total":50}